"Robots","ArrivalRate","AppxUtilization"
1,0.00272445936069483,0.3
1,0.00363041980617147,0.4
1,0.0045363802516481,0.5
1,0.00544234069712474,0.6
1,0.00634830114260138,0.7
1,0.00725426158807802,0.8
1,0.00816022203355465,0.9
1,0.00861320225629297,0.95
2,0.00546116772106506,0.3
2,0.00720084282616769,0.4
2,0.00900155308752032,0.5
2,0.010802263348873,0.6
2,0.0126029736102256,0.7
2,0.0144036838715782,0.8
2,0.0162043941329309,0.9
2,0.0171047492636072,0.95
3,0.00811466139853732,0.3
3,0.0107987347843294,0.4
3,0.0134713385585274,0.5
3,0.0161672011226063,0.6
3,0.0188379104564382,0.7
3,0.0215067858312826,0.8
3,0.0241858211817877,0.9
3,0.0254643037007903,0.95
4,0.0107969037014248,0.3
4,0.0143573062297707,0.4
4,0.0179114181749698,0.5
4,0.021447963084758,0.6
4,0.0249606897736807,0.7
4,0.0284795905417798,0.8
4,0.0319750261900959,0.9
4,0.0337378893744471,0.95
5,0.0134762548800553,0.3
5,0.0178826405491883,0.4
5,0.0222809657057097,0.5
5,0.0266573257311464,0.6
5,0.0310146759223821,0.7
5,0.0353496502677976,0.8
5,0.0396568162664309,0.9
5,0.041796038685804,0.95
6,0.0160799505998993,0.3
6,0.021381785482187,0.4
6,0.0266150700331627,0.5
6,0.0318083503425074,0.6
6,0.0369758624135596,0.7
6,0.042103467571083,0.8
6,0.0471909149243039,0.9
6,0.0497110313170221,0.95
7,0.0187247128070218,0.3
7,0.0248540976435321,0.4
7,0.0309278961712714,0.5
7,0.0368890652693178,0.6
7,0.0428394377641068,0.7
7,0.0487302730036933,0.8
7,0.0545623534296818,0.9
7,0.0574441817803773,0.95
8,0.0213522776784414,0.3
8,0.0282986648160505,0.4
8,0.0351079459009635,0.5
8,0.0418939826345639,0.6
8,0.04859895167636,0.7
8,0.0552197650093861,0.8
8,0.0617601946203003,0.9
8,0.0649782134242899,0.95
9,0.023962615550311,0.3
9,0.031714326297616,0.4
9,0.0392988676596243,0.5
9,0.0468779606173364,0.6
9,0.0543069986410553,0.7
9,0.0615715263020446,0.8
9,0.0687646730887564,0.9
9,0.0722982598050886,0.95
10,0.0265556294615228,0.3
10,0.0350996901267294,0.4
10,0.0434374667257766,0.5
10,0.0517217831839396,0.6
10,0.0598323253349981,0.7
10,0.0678146748491454,0.8
10,0.0755641282357364,0.9
10,0.0793848068597125,0.95
11,0.0291309717815463,0.3
11,0.0384553942363107,0.4
11,0.0475212947319558,0.5
11,0.0564977852739932,0.6
11,0.0652476216142766,0.7
11,0.0738232040692345,0.8
11,0.0821405194988559,0.9
11,0.0862177452595119,0.95
12,0.0316880105962649,0.3
12,0.0417924821468114,0.4
12,0.0515476038399605,0.5
12,0.0611843134188807,0.6
12,0.0705401992910509,0.7
12,0.0796665108904004,0.8
12,0.0885381469821108,0.9
12,0.0927813532656423,0.95
13,0.0342258568178643,0.3
13,0.0450884511232889,0.4
13,0.0555743948762322,0.5
13,0.0657762472695406,0.6
13,0.0756947089301921,0.7
13,0.0853252291341914,0.8
13,0.0946184415100397,0.9
13,0.0990573093568652,0.95
14,0.0367434112532525,0.3
14,0.0483439097659921,0.4
14,0.0594763158949434,0.5
14,0.0702687718220843,0.6
14,0.0807033959623042,0.7
14,0.0907827501768936,0.8
14,0.100441160129393,0.9
14,0.105026804981308,0.95
15,0.0392394180407655,0.3
15,0.0515563466254768,0.4
15,0.063310942806824,0.5
15,0.0746562378488124,0.6
15,0.0855586671183318,0.7
15,0.0960286151936876,0.8
15,0.10599322649317,0.9
15,0.110737418475745,0.95
16,0.0417735579965026,0.3
16,0.054723919071297,0.4
16,0.0670747427413738,0.5
16,0.0789403638194163,0.6
16,0.090253236805085,0.7
16,0.101053180271404,0.8
16,0.11125082991764,0.9
16,0.116053208545091,0.95
17,0.0442297569716793,0.3
17,0.0578634762217677,0.4
17,0.0707642483135448,0.5
17,0.0831059564273553,0.6
17,0.094780289562815,0.7
17,0.105847919503548,0.8
17,0.116211089893156,0.9
17,0.121037094409658,0.95
18,0.0466808261406271,0.3
18,0.0609676103963222,0.4
18,0.0744372625943339,0.5
18,0.0871509340668491,0.6
18,0.0991336561657271,0.7
18,0.110405725176818,0.8
18,0.120863802201963,0.9
18,0.12568024922895,0.95
19,0.0491117163345881,0.3
19,0.0640283803073881,0.4
19,0.0779756750802975,0.5
19,0.0910757551657892,0.6
19,0.103307999667712,0.7
19,0.114721186151561,0.8
19,0.12520614593599,0.9
19,0.129977140531313,0.95
20,0.0515218270760889,0.3
20,0.0670443986026831,0.4
20,0.0814571027712768,0.5
20,0.0948743589666889,0.6
20,0.107299005626988,0.7
20,0.118790824442531,0.8
20,0.129231647323387,0.9
20,0.133927715363774,0.95
21,0.0539105460069009,0.3
21,0.0700142338935125,0.4
21,0.084858699715023,0.5
21,0.0985449583873613,0.6
21,0.111103567628897,0.7
21,0.122611186782072,0.8
21,0.132950886910351,0.9
21,0.137536512788142,0.95
22,0.0562772543247779,0.3
22,0.0729364197356214,0.4
22,0.0881787552172511,0.5
22,0.102085436107673,0.6
22,0.114719955396839,0.7
22,0.126195224132222,0.8
22,0.136367606562915,0.9
22,0.140816394792044,0.95
23,0.0586212483460023,0.3
23,0.075809460790136,0.4
23,0.0914072913458052,0.5
23,0.105480576011118,0.6
23,0.11820952931414,0.7
23,0.12951813982217,0.8
23,0.139491514876685,0.9
23,0.14378031918902,0.95
24,0.0609418228440706,0.3
24,0.0786318323125227,0.4
24,0.0945429536614218,0.5
24,0.108753661752056,0.6
24,0.121406934723271,0.7
24,0.132676575802135,0.8
24,0.142332327155553,0.9
24,0.146472149684838,0.95
25,0.0632385948578991,0.3
25,0.0814019681236374,0.4
25,0.0975744711778124,0.5
25,0.111894281635509,0.6
25,0.124489246235401,0.7
25,0.135543719743786,0.8
25,0.144907967785341,0.9
25,0.148848049752284,0.95
26,0.0655122188929324,0.3
26,0.0841182308958753,0.4
26,0.10052538940641,0.5
26,0.114843361204988,0.6
26,0.12731571764736,0.7
26,0.138186562176567,0.8
26,0.147231505179206,0.9
26,0.150964443500394,0.95
27,0.0677596196808777,0.3
27,0.0867788566000788,0.4
27,0.10338157681294,0.5
27,0.117704813297213,0.6
27,0.130023814892914,0.7
27,0.140620079514717,0.8
27,0.149352745070096,0.9
27,0.152852379487682,0.95
28,0.0699814909862789,0.3
28,0.0893877001541033,0.4
28,0.106141439351839,0.5
28,0.120425158352113,0.6
28,0.132558731966772,0.7
28,0.142859477558461,0.8
28,0.151234951829017,0.9
28,0.154527111919449,0.95
29,0.0721652588285888,0.3
29,0.0919443825220266,0.4
29,0.108818360003265,0.5
29,0.123020346678142,0.6
29,0.13492882577816,0.7
29,0.14490011656329,0.8
29,0.152921238935369,0.9
29,0.156006556501218,0.95
30,0.074332150083584,0.3
30,0.0944439445540127,0.4
30,0.111354766710623,0.5
30,0.125410637602753,0.6
30,0.137095457981965,0.7
30,0.146785338614329,0.8
30,0.154427363076391,0.9
30,0.157311306510439,0.95
31,0.0764717169696065,0.3
31,0.0968732626482619,0.4
31,0.113850325050716,0.5
31,0.127721325142354,0.6
31,0.139170563958685,0.7
31,0.14850330868035,0.8
31,0.155770304900318,0.9
31,0.158460565295875,0.95
32,0.0785846209247376,0.3
32,0.0992525326690793,0.4
32,0.116213537568195,0.5
32,0.129963962031139,0.6
32,0.141047980631108,0.7
32,0.150064243454949,0.8
32,0.156967230325653,0.9
32,0.159471872044916,0.95
33,0.0806884923208608,0.3
33,0.101571875164672,0.4
33,0.118491788018618,0.5
33,0.131986205581224,0.6
33,0.142800809313881,0.7
33,0.151465496160107,0.8
33,0.158035756687181,0.9
33,0.16036046950311,0.95
34,0.0827434071877065,0.3
34,0.103830980885035,0.4
34,0.120675371481517,0.5
34,0.133950742690857,0.6
34,0.144478134841644,0.7
34,0.152763631681893,0.8
34,0.15898052197126,0.9
34,0.161141872087496,0.95
35,0.0847683173435422,0.3
35,0.106030018366868,0.4
35,0.122795802702975,0.5
35,0.13578131729039,0.6
35,0.145995364622608,0.7
35,0.153950618834553,0.8
35,0.159820825554161,0.9
35,0.161826167205518,0.95
36,0.0867626531804156,0.3
36,0.108154776772567,0.4
36,0.124769715249721,0.5
36,0.137506571653004,0.6
36,0.147390036418573,0.7
36,0.155019682603664,0.8
36,0.160574683030988,0.9
36,0.162427939142058,0.95
37,0.088725862039088,0.3
37,0.11024387707488,0.4
37,0.126673986345036,0.5
37,0.139132777083056,0.6
37,0.1486856385808,0.7
37,0.155991112240058,0.8
37,0.161242327037879,0.9
37,0.162956760490717,0.95
38,0.0906574092639243,0.3
38,0.112214839864956,0.4
38,0.128542445569298,0.5
38,0.140671281005726,0.6
38,0.149860012548182,0.7
38,0.156873690189941,0.8
38,0.161833123843556,0.9
38,0.163419904396561,0.95
39,0.0925567780370944,0.3
39,0.114176345933113,0.4
39,0.130252991633678,0.5
39,0.142085259997787,0.6
39,0.1509724765633,0.7
39,0.157675926107229,0.8
39,0.162361821453948,0.9
39,0.163826538156404,0.95
40,0.0944234670572194,0.3
40,0.116042817702274,0.4
40,0.131909006419104,0.5
40,0.143388307475018,0.6
40,0.152007476911783,0.7
40,0.158406176674371,0.8
40,0.162827689444484,0.9
40,0.164183045258893,0.95
41,0.0962569844851871,0.3
41,0.117881336340359,0.4
41,0.133468045793448,0.5
41,0.144650742226416,0.6
41,0.152954988710295,0.7
41,0.15913102684644,0.8
41,0.163245133662491,0.9
41,0.164497070113048,0.95
42,0.0980568354935324,0.3
42,0.119629942985568,0.4
42,0.134951075084179,0.5
42,0.14583030531507,0.6
42,0.153800203262352,0.7
42,0.159706303279138,0.8
42,0.163609996254131,0.9
42,0.164771068123609,0.95
43,0.0998224989548484,0.3
43,0.121368957280882,0.4
43,0.136393262236449,0.5
43,0.146941890720217,0.6
43,0.154614613763577,0.7
43,0.160246643364756,0.8
43,0.163940247801474,0.9
43,0.165011101612818,0.95
44,0.101559267335771,0.3
44,0.122982920996297,0.4
44,0.137709191192661,0.5
44,0.147951392417842,0.6
44,0.155364305962693,0.7
44,0.160750496962023,0.8
44,0.164235112401457,0.9
44,0.16521687469246,0.95
45,0.103278043664777,0.3
45,0.124561752469867,0.4
45,0.139011913333104,0.5
45,0.148945373233097,0.6
45,0.156056628577695,0.7
45,0.161207695948865,0.8
45,0.164496063006752,0.9
45,0.165400881473843,0.95
46,0.104897275876378,0.3
46,0.126081615589546,0.4
46,0.140224142614755,0.5
46,0.149831265670155,0.6
46,0.156697620655038,0.7
46,0.161625203562511,0.8
46,0.164728143633003,0.9
46,0.165562040185641,0.95
47,0.106534126756989,0.3
47,0.127543034088379,0.4
47,0.141371993680435,0.5
47,0.150688788754371,0.6
47,0.157290897254113,0.7
47,0.161992731207684,0.8
47,0.164934572081095,0.9
47,0.165703016307601,0.95
48,0.108191078731544,0.3
48,0.128946486175111,0.4
48,0.1424738631163,0.5
48,0.151504926787305,0.6
48,0.157866219425919,0.7
48,0.162340769851216,0.8
48,0.165151159356317,0.9
48,0.165826543424468,0.95
49,0.109700682358934,0.3
49,0.13029165080423,0.4
49,0.143499317070419,0.5
49,0.152230998814323,0.6
49,0.158372706910162,0.7
49,0.162656462746631,0.8
49,0.165254033226557,0.9
49,0.165934050787734,0.95
50,0.11122532936827,0.3
50,0.131638353338782,0.4
50,0.144463702585882,0.5
50,0.152923692318737,0.6
50,0.158840547750968,0.7
50,0.162948759660407,0.8
50,0.165400295931427,0.9
50,0.166028667598991,0.95
